{
	"info": {
		"_postman_id": "8a6d8e38-184c-4012-ad8f-dd8a22fa92c8",
		"name": "lvl.io",
		"schema": "https://schema.getpostman.com/json/collection/v2.1.0/collection.json",
		"_exporter_id": "19789610",
		"_collection_link": "https://falcon-team100.postman.co/workspace/Eduard's-workspace~2225e237-f03d-4cb3-8ea2-ea6efa08e189/collection/19789610-8a6d8e38-184c-4012-ad8f-dd8a22fa92c8?action=share&source=collection_link&creator=19789610"
	},
	"item": [
		{
			"name": "reader",
			"item": [
				{
					"name": "create",
					"request": {
						"method": "POST",
						"header": [],
						"body": {
							"mode": "formdata",
							"formdata": [
								{
									"key": "name",
									"value": "Эдуард",
									"type": "text"
								}
							]
						},
						"url": {
							"raw": "{{URL}}/api/v1/reader/create",
							"host": [
								"{{URL}}"
							],
							"path": [
								"api",
								"v1",
								"reader",
								"create"
							]
						}
					},
					"response": []
				},
				{
					"name": "update",
					"request": {
						"method": "PUT",
						"header": [],
						"body": {
							"mode": "urlencoded",
							"urlencoded": [
								{
									"key": "name",
									"value": "Master",
									"type": "text"
								},
								{
									"key": "registration_date",
									"value": "2023-11-13 11:52:52",
									"type": "text"
								}
							]
						},
						"url": {
							"raw": "{{URL}}/api/v1/reader/update?id=1",
							"host": [
								"{{URL}}"
							],
							"path": [
								"api",
								"v1",
								"reader",
								"update"
							],
							"query": [
								{
									"key": "id",
									"value": "1"
								}
							]
						}
					},
					"response": []
				},
				{
					"name": "view",
					"protocolProfileBehavior": {
						"disableBodyPruning": true
					},
					"request": {
						"method": "GET",
						"header": [],
						"body": {
							"mode": "formdata",
							"formdata": []
						},
						"url": {
							"raw": "{{URL}}/api/v1/reader/view?id=1&expand=bookIssues",
							"host": [
								"{{URL}}"
							],
							"path": [
								"api",
								"v1",
								"reader",
								"view"
							],
							"query": [
								{
									"key": "id",
									"value": "1"
								},
								{
									"key": "expand",
									"value": "bookIssues"
								}
							]
						}
					},
					"response": []
				},
				{
					"name": "list",
					"protocolProfileBehavior": {
						"disableBodyPruning": true
					},
					"request": {
						"auth": {
							"type": "bearer",
							"bearer": [
								{
									"key": "token",
									"value": "WDfTlHqctzXYTdvg-5PnOE5M0hYleyToXFwQD9pG",
									"type": "string"
								}
							]
						},
						"method": "GET",
						"header": [],
						"body": {
							"mode": "formdata",
							"formdata": []
						},
						"url": {
							"raw": "{{URL}}/api/v1/reader/list?expand=bookIssues&name=Эдуард&expected_return_date",
							"host": [
								"{{URL}}"
							],
							"path": [
								"api",
								"v1",
								"reader",
								"list"
							],
							"query": [
								{
									"key": "expand",
									"value": "bookIssues"
								},
								{
									"key": "name",
									"value": "Эдуард"
								},
								{
									"key": "expected_return_date",
									"value": null
								}
							]
						}
					},
					"response": []
				},
				{
					"name": "delete",
					"request": {
						"method": "DELETE",
						"header": [],
						"body": {
							"mode": "formdata",
							"formdata": []
						},
						"url": {
							"raw": "{{URL}}/api/v1/reader/delete?id=1",
							"host": [
								"{{URL}}"
							],
							"path": [
								"api",
								"v1",
								"reader",
								"delete"
							],
							"query": [
								{
									"key": "id",
									"value": "1"
								}
							]
						}
					},
					"response": []
				}
			]
		},
		{
			"name": "book",
			"item": [
				{
					"name": "create",
					"request": {
						"method": "POST",
						"header": [],
						"body": {
							"mode": "formdata",
							"formdata": [
								{
									"key": "author",
									"value": "Эдуард",
									"type": "text"
								},
								{
									"key": "title",
									"value": "Книга первая",
									"type": "text"
								},
								{
									"key": "alias",
									"value": "book_1",
									"type": "text"
								}
							]
						},
						"url": {
							"raw": "{{URL}}/api/v1/book/create",
							"host": [
								"{{URL}}"
							],
							"path": [
								"api",
								"v1",
								"book",
								"create"
							]
						}
					},
					"response": []
				},
				{
					"name": "update",
					"request": {
						"method": "PUT",
						"header": [],
						"body": {
							"mode": "urlencoded",
							"urlencoded": [
								{
									"key": "author",
									"value": "Master",
									"type": "text"
								},
								{
									"key": "title",
									"value": "Книга 2",
									"type": "text"
								},
								{
									"key": "alias",
									"value": "book_2",
									"type": "text"
								}
							]
						},
						"url": {
							"raw": "{{URL}}/api/v1/book/update?id=1",
							"host": [
								"{{URL}}"
							],
							"path": [
								"api",
								"v1",
								"book",
								"update"
							],
							"query": [
								{
									"key": "id",
									"value": "1"
								}
							]
						}
					},
					"response": []
				},
				{
					"name": "view",
					"protocolProfileBehavior": {
						"disableBodyPruning": true
					},
					"request": {
						"method": "GET",
						"header": [],
						"body": {
							"mode": "formdata",
							"formdata": []
						},
						"url": {
							"raw": "{{URL}}/api/v1/book/view?id=1&expand=bookIssues",
							"host": [
								"{{URL}}"
							],
							"path": [
								"api",
								"v1",
								"book",
								"view"
							],
							"query": [
								{
									"key": "id",
									"value": "1"
								},
								{
									"key": "expand",
									"value": "bookIssues"
								}
							]
						}
					},
					"response": []
				},
				{
					"name": "list",
					"protocolProfileBehavior": {
						"disableBodyPruning": true
					},
					"request": {
						"auth": {
							"type": "bearer",
							"bearer": [
								{
									"key": "token",
									"value": "WDfTlHqctzXYTdvg-5PnOE5M0hYleyToXFwQD9pG",
									"type": "string"
								}
							]
						},
						"method": "GET",
						"header": [],
						"body": {
							"mode": "urlencoded",
							"urlencoded": []
						},
						"url": {
							"raw": "{{URL}}/api/v1/book/list?expand=bookIssues&issue_date=1699903293&expected_return_date",
							"host": [
								"{{URL}}"
							],
							"path": [
								"api",
								"v1",
								"book",
								"list"
							],
							"query": [
								{
									"key": "expand",
									"value": "bookIssues"
								},
								{
									"key": "alias",
									"value": "book_1",
									"disabled": true
								},
								{
									"key": "issue_date",
									"value": "1699903293"
								},
								{
									"key": "expected_return_date",
									"value": null
								}
							]
						}
					},
					"response": []
				},
				{
					"name": "delete",
					"request": {
						"method": "DELETE",
						"header": [],
						"body": {
							"mode": "formdata",
							"formdata": []
						},
						"url": {
							"raw": "{{URL}}/api/v1/book/delete?id=1",
							"host": [
								"{{URL}}"
							],
							"path": [
								"api",
								"v1",
								"book",
								"delete"
							],
							"query": [
								{
									"key": "id",
									"value": "1"
								}
							]
						}
					},
					"response": []
				}
			]
		},
		{
			"name": "bookIssue",
			"item": [
				{
					"name": "create",
					"request": {
						"method": "POST",
						"header": [],
						"body": {
							"mode": "formdata",
							"formdata": [
								{
									"key": "book_id",
									"value": "1",
									"type": "text"
								},
								{
									"key": "reader_id",
									"value": "6",
									"type": "text"
								},
								{
									"key": "expected_return_date",
									"value": "2023-11-20 18:53:02",
									"type": "text"
								}
							]
						},
						"url": {
							"raw": "{{URL}}/api/v1/book-issue/create",
							"host": [
								"{{URL}}"
							],
							"path": [
								"api",
								"v1",
								"book-issue",
								"create"
							]
						}
					},
					"response": []
				},
				{
					"name": "close",
					"request": {
						"method": "POST",
						"header": [],
						"body": {
							"mode": "formdata",
							"formdata": []
						},
						"url": {
							"raw": "{{URL}}/api/v1/book-issue/close?id=5",
							"host": [
								"{{URL}}"
							],
							"path": [
								"api",
								"v1",
								"book-issue",
								"close"
							],
							"query": [
								{
									"key": "id",
									"value": "5"
								}
							]
						}
					},
					"response": []
				},
				{
					"name": "view",
					"protocolProfileBehavior": {
						"disableBodyPruning": true
					},
					"request": {
						"method": "GET",
						"header": [],
						"body": {
							"mode": "formdata",
							"formdata": []
						},
						"url": {
							"raw": "{{URL}}/api/v1/book-issue/view?id=5&expand=book,reader",
							"host": [
								"{{URL}}"
							],
							"path": [
								"api",
								"v1",
								"book-issue",
								"view"
							],
							"query": [
								{
									"key": "id",
									"value": "5"
								},
								{
									"key": "expand",
									"value": "book,reader"
								}
							]
						}
					},
					"response": []
				},
				{
					"name": "list",
					"protocolProfileBehavior": {
						"disableBodyPruning": true
					},
					"request": {
						"auth": {
							"type": "bearer",
							"bearer": [
								{
									"key": "token",
									"value": "WDfTlHqctzXYTdvg-5PnOE5M0hYleyToXFwQD9pG",
									"type": "string"
								}
							]
						},
						"method": "GET",
						"header": [],
						"body": {
							"mode": "urlencoded",
							"urlencoded": []
						},
						"url": {
							"raw": "{{URL}}/api/v1/book-issue/list?expand=book,reader&book_title=Книга 2&reader_name=Эдуард",
							"host": [
								"{{URL}}"
							],
							"path": [
								"api",
								"v1",
								"book-issue",
								"list"
							],
							"query": [
								{
									"key": "expand",
									"value": "book,reader"
								},
								{
									"key": "book_title",
									"value": "Книга 2"
								},
								{
									"key": "reader_name",
									"value": "Эдуард"
								}
							]
						}
					},
					"response": []
				}
			]
		}
	],
	"auth": {
		"type": "bearer",
		"bearer": [
			{
				"key": "token",
				"value": "WDfTlHqctzXYTdvg-5PnOE5M0hYleyToXFwQD9pG",
				"type": "string"
			}
		]
	},
	"event": [
		{
			"listen": "prerequest",
			"script": {
				"type": "text/javascript",
				"exec": [
					""
				]
			}
		},
		{
			"listen": "test",
			"script": {
				"type": "text/javascript",
				"exec": [
					""
				]
			}
		}
	],
	"variable": [
		{
			"key": "URL",
			"value": "http://yii2-starter-kit.localhost",
			"type": "string"
		}
	]
}